................
----------------------------------------------------------------------
Ran 16 tests in 0.157s

OK
Name             Stmts   Miss Branch BrPart  Cover   Missing
------------------------------------------------------------
Collatz.py          49      0     18      0   100%
TestCollatz.py      69      0      0      0   100%
------------------------------------------------------------
TOTAL              118      0     18      0   100%
