..............
----------------------------------------------------------------------
Ran 14 tests in 0.006s

OK
Name             Stmts   Miss Branch BrPart  Cover   Missing
------------------------------------------------------------
Collatz.py          33      0     12      0   100%
TestCollatz.py      63      0      0      0   100%
------------------------------------------------------------
TOTAL               96      0     12      0   100%
