1 10 20
100 200 125
201 210 89
900 1000 174
490753 373825 449
937588 188165 525
95210 944763 525
189203 543879 470
517107 169475 470
986718 388232 525
974926 227737 525
433598 783740 509
542011 965069 525
611065 369966 470
137024 60639 354
237510 804554 509
765499 872071 525
649279 268223 509
918817 765946 525
594868 927167 525
559770 595194 434
1651 364019 443
671548 406945 509
504208 970995 525
932527 320239 525
227694 337537 443
844481 766424 525
702443 149007 509
606556 777732 509
659940 516530 509
775722 382541 509
795371 378813 509
147017 461768 449
993868 585865 525
348767 452458 449
307464 593188 470
446133 929806 525
505293 621270 470
576312 590274 434
371165 452021 449
456269 215810 449
454245 128806 449
99820 763721 509
85722 49887 351
69778 648312 509
729177 696651 504
449646 135757 449
235643 382823 441
171552 178187 347
497582 261604 449
472915 789924 509
474649 872488 525
974002 408025 525
931776 337492 525
571127 866225 525
403571 619655 470
815179 115117 509
404584 33579 443
954016 415144 525
246607 969964 525
361017 176477 443
360551 418046 449
658451 824050 504
247223 585546 470
544038 309344 470
376408 543087 470
201822 566437 470
268777 841625 525
781283 336626 509
859315 692867 525
669686 273048 509
712010 841227 525
740205 573786 509
130550 100893 354
266750 246878 407
686781 919534 525
267376 532941 470
445183 236150 449
896916 975672 507
3389 383936 443
298766 432243 449
756983 788972 468
889013 326435 525
99633 963644 525
501394 912972 525
500198 996523 525
926185 234045 525
510734 620004 470
363997 793092 509
945897 815606 525
204842 804727 509
803194 342339 509
913919 851258 476
990571 845312 507
477669 156275 449
15829 377876 443
77905 592971 470
881340 847271 432
236652 415448 449
156995 560478 470
264798 32795 443
324080 76253 443
512585 79764 470
938035 665231 525
965151 86539 525
213985 637695 509
728700 340707 509
897542 923785 476
275993 818498 509
388861 633670 509
249692 419963 449
271401 871395 525
100917 207641 383
797235 850585 525
184308 910220 525
703814 627279 442
910229 359684 525
251419 716517 509
201687 923154 525
380554 659126 509
800612 363715 509
750090 760029 424
880614 94759 525
656429 533378 509
3773 171065 383
466838 744427 509
641449 222917 509
8304 517287 470
418682 200755 449
197370 888332 525
485229 563445 470
982544 545205 525
698694 950635 525
342461 599994 470
533358 730288 509
102063 481272 449
129503 17751 354
889915 662025 525
871344 173270 525
188752 718309 509
659161 122762 509
514088 622188 452
974298 621162 525
156774 114364 383
717348 961480 525
834456 943596 525
434847 877468 525
641495 710086 504
797742 506626 509
636658 767907 504
185946 293474 443
5621 963164 525
149949 649633 509
671111 105014 509
973242 975635 383
448923 969542 525
285760 323998 389
541787 512172 439
968198 222523 525
997157 9478 525
245811 627742 509
327432 386859 441
923791 186337 525
967234 142348 525
170389 393544 443
170796 633834 509
29578 320588 443
276304 59662 443
446048 266925 449
441137 414175 418
355139 305759 441
336086 228691 443
651086 190862 509
844874 867471 419
500497 63787 449
262240 210307 443
784574 693806 504
19782 56629 340
502085 803240 509
890169 693049 525
724508 666737 504
389560 748704 509
269994 207189 443
82104 671766 509
283718 470872 449
873449 489713 525
781756 69908 509
662576 46921 509
850125 407083 525
756802 137087 509
637632 877521 525
264998 339346 407
364150 894495 525
790312 451408 509
27449 757200 509
484545 516354 470
416377 761975 509
890757 456816 525
382087 328968 441
