.........................
----------------------------------------------------------------------
Ran 25 tests in 0.337s

OK
Name             Stmts   Miss Branch BrPart  Cover   Missing
------------------------------------------------------------
Collatz.py          73      0     22      0   100%
TestCollatz.py     101      0      0      0   100%
------------------------------------------------------------
TOTAL              174      0     22      0   100%
