.......
----------------------------------------------------------------------
Ran 7 tests in 0.016s

OK
Name             Stmts   Miss Branch BrPart  Cover   Missing
------------------------------------------------------------
Collatz.py          28      1     12      1    95%   36, 35->36
TestCollatz.py      32      0      0      0   100%
------------------------------------------------------------
TOTAL               60      1     12      1    97%
